{
    "type": "mysql",
    "host": "localhost",
    "port": 3307,
    "username": "root",
    "password": "root",
    "database": "hotel",
    "synchronize": true,
    "logging": false,
    "entities": [
      "src/database/entities/*.ts"
    ],
    "migrations": [
      "src/database/migration/*.ts"
    ],
    "cli": {
      "entitiesDir": "src/data/entities",
      "migrationsDir": "src/data/migration"
    }
  }